A compilation of replications of the Diener et al.2010 paper
…
categorical_demographics

## # A tibble: 119 × 5
##    study_site   variable      value               n   prop
##    <chr>        <chr>         <chr>           <int>  <dbl>
##  1 Study_Site_1 education     some teriary       30 0.526 
##  2 Study_Site_1 education     secondary          17 0.298 
##  3 Study_Site_1 education     full teritary       5 0.0877
##  4 Study_Site_1 education     graduate degree     4 0.0702
##  5 Study_Site_1 education     Missing             1 0.0175
##  6 Study_Site_1 gender        woman              38 0.667 
##  7 Study_Site_1 gender        man                14 0.246 
##  8 Study_Site_1 gender        Missing             3 0.0526
##  9 Study_Site_1 gender        nonbinary           2 0.0351
## 10 Study_Site_1 maritalStatus single             42 0.737 
## # ℹ 109 more rows
…
